…
realfootball %>% 
  group_by(`Time of Red Cards Given`, WLT) %>%
  summarise(
    total = n())%>% 
  arrange(`Time of Red Cards Given`)

## `summarise()` has grouped output by 'Time of Red Cards Given'. You can override using the `.groups` argument.

## # A tibble: 66 x 3
## # Groups:   Time of Red Cards Given [55]
##    `Time of Red Cards Given` WLT   total
##    <chr>                     <chr> <int>
##  1 11'                       L         1
##  2 11'                       W         1
##  3 12'                       L         2
##  4 14'                       L         1
##  5 15'                       L         1
##  6 19'                       W         1
##  7 20'                       L         1
##  8 24'                       T         1
##  9 25'                       T         1
## 10 26'                       T         1
## # … with 56 more rows

RCD <- realfootball %>%
  group_by(`Time of Red Cards Given`, WLT)%>%
  summarise(
    total = n())

## `summarise()` has grouped output by 'Time of Red Cards Given'. You can override using the `.groups` argument.

RCD

## # A tibble: 66 x 3
## # Groups:   Time of Red Cards Given [55]
##    `Time of Red Cards Given` WLT   total
##    <chr>                     <chr> <int>
##  1 11'                       L         1
##  2 11'                       W         1
##  3 12'                       L         2
##  4 14'                       L         1
##  5 15'                       L         1
##  6 19'                       W         1
##  7 20'                       L         1
##  8 24'                       T         1
##  9 25'                       T         1
## 10 26'                       T         1
## # … with 56 more rows
…
