…
From there, I narrowed it down to the time the red card was issued, and what the result of the game was for that team. and added whether it was a win (W), a loss (L), or a tie (T).

realfootball %>% 
  group_by(`Time of Red Cards Given`, WLT) %>%
  summarise(
    total = n())%>% 
  arrange(`Time of Red Cards Given`)

## `summarise()` has grouped output by 'Time of Red Cards Given'. You can override using the `.groups` argument.

## # A tibble: 66 x 3
## # Groups:   Time of Red Cards Given [55]
##    `Time of Red Cards Given` WLT   total
##    <chr>                     <chr> <int>
##  1 11'                       L         1
##  2 11'                       W         1
##  3 12'                       L         2
##  4 14'                       L         1
##  5 15'                       L         1
##  6 19'                       W         1
##  7 20'                       L         1
##  8 24'                       T         1
##  9 25'                       T         1
## 10 26'                       T         1
## # … with 56 more rows

After this I created a data set with just the data I needed and nothing else. This allowed me to focus on adding more data from the data I had and clean it to make it more understandable.

RCD <- realfootball %>%
  group_by(`Time of Red Cards Given`, WLT)%>%
  summarise(
    total = n())

## `summarise()` has grouped output by 'Time of Red Cards Given'. You can override using the `.groups` argument.

RCD

## # A tibble: 66 x 3
## # Groups:   Time of Red Cards Given [55]
##    `Time of Red Cards Given` WLT   total
##    <chr>                     <chr> <int>
##  1 11'                       L         1
##  2 11'                       W         1
##  3 12'                       L         2
##  4 14'                       L         1
##  5 15'                       L         1
##  6 19'                       W         1
##  7 20'                       L         1
##  8 24'                       T         1
##  9 25'                       T         1
## 10 26'                       T         1
## # … with 56 more rows
…
